index.knit
…
The output above is not ready yet, we need to split the pairs:

library(tidyr)
bigrams_inColumns = bigrams |>
                    separate_wider_delim(bigram, 
                                         names = c("word1", "word2"), 
                                         delim = " ")
bigrams_inColumns

## # A tibble: 2,907 × 3
##    created_at          word1       word2      
##    <chr>               <chr>       <chr>      
##  1 2020-08-13 23:26:50 donyoungak  really     
##  2 2020-08-13 23:26:50 really      produces   
##  3 2020-08-13 23:26:50 produces    for        
##  4 2020-08-13 23:26:50 for         alaska     
##  5 2020-08-13 23:26:50 alaska      he         
##  6 2020-08-13 23:26:50 he          is         
##  7 2020-08-13 23:26:50 is          an         
##  8 2020-08-13 23:26:50 an          incredible 
##  9 2020-08-13 23:26:50 incredible  congressman
## 10 2020-08-13 23:26:50 congressman who        
## # ℹ 2,897 more rows
…
lda_model = LDA(tweet_DTM, k = 3, control = list(seed = 1234))

You get:

lda_model

## A LDA_VEM topic model with 3 topics.

We can extract important information from lda_model:

topics_terms_betas = tidy(lda_model, matrix = "beta")
##see
topics_terms_betas

## # A tibble: 2,472 × 3
##    topic term             beta
##    <int> <chr>           <dbl>
##  1     1 alaska      2.53e-143
##  2     2 alaska      2.30e-  3
##  3     3 alaska      7.77e-140
##  4     1 amendment   4.02e-139
##  5     2 amendment   1.61e-  2
##  6     3 amendment   4.77e-135
##  7     1 complete    1.85e- 13
##  8     2 complete    2.30e-  2
##  9     3 complete    5.44e-  3
## 10     1 congressman 6.69e-  9
## # ℹ 2,462 more rows
…
